<?xml version="1.0" standalone="no"?>
<!DOCTYPE svg PUBLIC "-//W3C//DTD SVG 20010904//EN"
 "http://www.w3.org/TR/2001/REC-SVG-20010904/DTD/svg10.dtd">
<svg version="1.0" xmlns="http://www.w3.org/2000/svg"
 width="512.000000pt" height="512.000000pt" viewBox="0 0 512.000000 512.000000"
 preserveAspectRatio="xMidYMid meet">
<metadata>
Created by potrace 1.15, written by Peter Selinger 2001-2017
</metadata>
<g transform="translate(0.000000,512.000000) scale(0.100000,-0.100000)"
fill="#000000" stroke="none">
<path d="M2371 4989 c-107 -4 -197 -11 -200 -16 -3 -4 -10 -9 -16 -9 -93 -11
-195 -28 -195 -34 0 -3 -34 -12 -75 -19 -41 -7 -75 -16 -75 -20 0 -4 -27 -13
-60 -20 -33 -8 -60 -17 -60 -21 0 -4 -14 -10 -31 -14 -17 -3 -47 -13 -67 -22
-94 -42 -167 -78 -172 -84 -3 -4 -19 -12 -36 -17 -17 -6 -51 -24 -75 -39 -53
-34 -96 -59 -126 -73 -13 -6 -23 -15 -23 -21 0 -5 -5 -10 -12 -10 -12 0 -166
-113 -232 -171 -101 -88 -325 -324 -335 -353 -2 -6 -10 -15 -17 -19 -8 -4 -14
-13 -14 -20 0 -7 -11 -22 -23 -34 -13 -12 -41 -50 -62 -85 -21 -35 -42 -65
-45 -68 -4 -3 -13 -20 -21 -37 -8 -18 -17 -33 -20 -33 -4 0 -12 -15 -20 -32
-7 -18 -16 -35 -19 -38 -3 -3 -28 -50 -54 -105 -26 -55 -54 -112 -62 -127 -8
-14 -14 -31 -14 -38 0 -6 -8 -30 -19 -53 -10 -23 -22 -58 -26 -77 -4 -19 -11
-39 -15 -45 -5 -5 -14 -39 -21 -75 -7 -36 -15 -67 -18 -70 -4 -3 -12 -34 -19
-70 -6 -36 -17 -87 -24 -115 -17 -67 -16 -663 1 -755 7 -36 17 -96 23 -135 6
-38 14 -72 18 -75 3 -3 12 -36 19 -75 7 -38 16 -74 20 -80 4 -5 13 -34 20 -64
8 -29 20 -65 27 -80 8 -14 14 -30 14 -34 0 -17 154 -340 172 -362 14 -17 58
-86 58 -90 0 -6 95 -140 127 -180 14 -16 41 -50 61 -75 84 -103 286 -292 414
-388 75 -56 138 -102 140 -102 2 0 53 -29 113 -65 60 -36 115 -65 122 -65 7 0
13 -4 13 -10 0 -5 4 -10 10 -10 5 0 33 -11 62 -24 29 -14 66 -28 81 -31 15 -4
27 -11 27 -15 0 -4 15 -11 33 -14 17 -3 44 -12 59 -20 15 -8 42 -17 60 -21 18
-4 38 -11 44 -16 18 -14 243 -68 286 -69 15 0 29 -4 32 -9 3 -5 64 -14 134
-21 99 -9 195 -10 411 -2 156 6 288 15 294 20 7 5 44 13 82 17 39 4 88 13 110
20 22 7 56 16 75 20 44 8 155 43 197 61 17 8 35 14 40 14 4 1 26 9 48 20 22
11 45 19 50 20 15 0 263 127 315 160 25 17 52 33 60 37 8 3 25 14 36 22 12 9
32 23 44 31 13 8 32 23 42 32 10 10 22 18 28 18 5 0 15 9 22 20 7 11 17 20 23
20 15 0 98 73 220 195 121 122 169 176 244 280 27 39 54 75 59 81 6 6 17 24
26 40 9 16 25 43 36 59 11 17 27 44 35 60 9 17 29 52 45 78 16 26 33 59 36 72
3 14 10 25 14 25 5 0 12 10 15 23 4 12 18 46 31 75 13 29 24 58 24 65 0 7 4
17 9 22 5 6 14 28 21 50 6 22 18 54 25 70 7 17 16 51 20 78 4 26 11 47 15 47
4 0 12 26 18 58 6 31 18 91 26 132 8 41 15 95 16 121 0 25 5 50 10 55 22 22
-2 581 -31 719 -6 28 -15 77 -21 110 -6 33 -14 62 -18 65 -4 3 -12 34 -19 70
-7 36 -16 70 -21 75 -4 6 -11 26 -15 45 -4 19 -16 54 -26 77 -11 23 -19 45
-19 48 0 24 -149 318 -170 335 -3 3 -12 20 -19 38 -8 17 -17 32 -22 32 -4 0
-11 9 -14 20 -3 11 -12 26 -18 32 -7 7 -25 33 -42 58 -16 24 -37 52 -45 61 -8
9 -26 31 -40 49 -40 53 -192 216 -230 246 -19 16 -39 34 -43 42 -5 7 -54 48
-110 92 -56 44 -106 83 -112 88 -5 4 -32 22 -60 39 -27 18 -55 36 -61 40 -13
10 -51 33 -89 52 -16 9 -32 19 -35 22 -3 3 -54 29 -115 58 -60 29 -122 59
-137 67 -14 8 -31 14 -38 14 -6 0 -30 9 -53 19 -23 11 -59 22 -79 26 -21 4
-38 11 -38 15 0 4 -30 13 -67 20 -37 6 -70 15 -73 20 -3 5 -46 14 -95 21 -50
7 -92 16 -95 20 -8 11 -237 29 -347 27 -54 0 -185 -5 -292 -9z m370 -674 l16
-50 109 -6 c60 -3 119 -11 132 -18 34 -18 119 -145 178 -266 30 -60 54 -116
54 -122 0 -7 3 -13 8 -13 4 -1 37 -2 73 -3 78 -2 101 -17 97 -61 -2 -24 -10
-34 -34 -45 l-31 -13 23 -42 c28 -51 46 -144 42 -216 l-3 -55 -105 -6 c-58 -4
-436 -7 -842 -8 l-736 -2 -7 39 c-9 54 11 184 35 232 25 49 25 60 0 60 -29 0
-54 43 -40 69 16 31 43 41 110 41 59 0 61 1 72 31 36 104 168 332 215 371 9 7
66 17 131 23 l115 10 9 30 c25 82 8 76 195 73 l168 -3 16 -50z m653 -981 c3
-9 6 -40 6 -70 0 -49 -3 -55 -25 -64 -23 -9 -25 -14 -25 -74 0 -107 -25 -137
-117 -139 -93 -3 -123 31 -123 139 l0 64 -517 -2 -518 -3 -5 -78 c-4 -71 -8
-81 -33 -103 -40 -35 -134 -35 -174 0 -25 22 -29 32 -33 103 l-5 78 -40 3
c-22 2 -43 9 -47 15 -10 16 -10 109 0 124 9 14 152 17 1103 21 491 2 547 0
553 -14z m370 -707 l9 -108 111 3 111 3 3 108 3 108 117 -3 117 -3 3 -107 3
-108 114 0 115 0 0 110 0 110 120 0 120 0 0 -72 c0 -40 3 -90 6 -110 l7 -38
53 0 54 0 0 -80 c0 -392 -154 -861 -398 -1210 -105 -150 -292 -350 -437 -466
-243 -194 -564 -356 -853 -428 -539 -137 -1093 -79 -1587 164 -647 318 -1105
931 -1225 1640 -9 58 -15 108 -13 113 2 4 26 7 54 7 l49 0 0 115 0 115 -60 0
-60 0 1 83 c1 45 4 96 8 112 6 28 9 30 56 30 l50 0 3 -113 3 -113 112 3 112 3
5 110 5 110 116 3 116 3 8 -111 7 -110 114 0 113 0 3 108 3 107 120 0 120 0 3
-107 3 -108 114 0 115 0 0 109 0 108 113 5 c61 3 115 3 119 -1 4 -4 11 -53 14
-109 l7 -102 107 0 107 0 7 46 c3 26 6 75 6 110 l0 64 120 0 120 0 0 -110 0
-110 115 0 115 0 0 110 0 110 119 0 118 0 7 -46 c3 -26 6 -76 6 -111 l0 -64
113 3 112 3 3 108 3 108 122 -3 122 -3 5 -105 5 -105 113 -3 112 -3 0 109 c0
60 3 112 7 116 4 3 57 5 117 4 l111 -3 9 -108z"/>
<path d="M2281 4160 c-123 -10 -135 -18 -187 -128 -43 -91 -105 -272 -97 -285
5 -9 1142 -1 1151 8 5 5 -87 222 -129 307 -21 43 -49 83 -61 90 -28 15 -516
21 -677 8z"/>
<path d="M1913 3630 c-34 -14 -56 -54 -48 -90 13 -61 94 -82 140 -35 39 38 27
102 -22 124 -28 13 -40 13 -70 1z"/>
<path d="M3117 3622 c-23 -26 -22 -94 1 -115 11 -10 35 -17 60 -17 32 0 45 6
61 26 12 15 21 37 21 49 0 12 -9 34 -21 49 -16 21 -29 26 -63 26 -29 0 -48 -6
-59 -18z"/>
<path d="M2195 3460 c-27 -4 136 -8 363 -8 269 -1 412 1 412 8 0 11 -692 11
-775 0z"/>
<path d="M3607 2513 l-88 -4 3 -112 3 -112 109 2 c77 1 112 6 117 15 10 15 12
179 3 202 -4 10 -16 15 -33 14 -14 -1 -66 -4 -114 -5z"/>
<path d="M4004 2509 c-3 -6 -3 -58 1 -115 l7 -104 114 0 114 0 0 115 0 115
-114 0 c-72 0 -117 -4 -122 -11z"/>
<path d="M4482 2408 l3 -113 111 -3 111 -3 6 83 c4 46 7 98 7 116 l0 32 -120
0 -121 0 3 -112z"/>
<path d="M2130 2501 c-28 -5 -35 -10 -34 -28 0 -13 1 -61 2 -108 l2 -85 115 0
115 0 0 109 c0 90 -3 110 -16 115 -19 7 -136 6 -184 -3z"/>
<path d="M2577 2503 c-9 -8 -9 -135 -1 -185 l7 -38 108 0 109 0 0 115 0 115
-108 0 c-60 0 -112 -3 -115 -7z"/>
<path d="M3050 2395 l0 -116 113 3 112 3 3 113 3 112 -116 0 -115 0 0 -115z"/>
<path d="M1140 2385 l0 -115 115 0 115 0 0 115 0 115 -115 0 -115 0 0 -115z"/>
<path d="M1612 2388 l3 -113 112 -3 111 -3 7 53 c4 29 5 80 3 113 l-3 60 -118
3 -118 3 3 -113z"/>
<path d="M660 2391 c0 -55 3 -106 6 -115 5 -13 25 -16 114 -16 l107 0 7 105
c4 58 5 109 1 115 -4 6 -54 10 -121 10 l-114 0 0 -99z"/>
<path d="M3181 1941 c-17 -4 -44 -42 -97 -136 -41 -72 -79 -131 -83 -133 -5
-2 -44 58 -87 132 l-79 136 -58 0 -59 0 20 -32 c142 -230 192 -315 192 -325 0
-6 -46 -87 -101 -180 -56 -92 -104 -174 -106 -180 -4 -10 10 -13 50 -13 l56 0
78 145 c43 79 83 144 88 144 6 0 34 -41 64 -92 118 -200 115 -197 165 -197 25
0 48 5 51 10 4 6 -44 92 -105 190 l-112 180 106 171 c59 93 104 174 101 180
-7 10 -48 11 -84 0z"/>
<path d="M3397 1944 c-10 -10 -8 -706 2 -722 5 -8 23 -12 47 -10 l39 3 0 365
0 365 -40 3 c-23 2 -44 0 -48 -4z"/>
<path d="M1584 1926 c-3 -8 -4 -27 -2 -43 l3 -28 108 -3 107 -3 0 -117 c0 -64
3 -208 7 -319 l6 -203 50 0 50 0 -7 319 -7 318 68 6 c37 4 90 7 116 7 l48 0
-3 38 -3 37 -268 3 c-225 2 -268 0 -273 -12z"/>
<path d="M2281 1853 c-53 -151 -211 -625 -211 -635 0 -5 23 -8 51 -6 l51 3 36
113 36 112 127 0 127 0 16 -42 c9 -24 27 -74 39 -113 l24 -70 51 -3 c41 -2 52
0 52 12 0 8 -18 63 -39 123 -22 59 -74 205 -116 323 -43 118 -82 227 -87 243
-9 25 -14 27 -68 27 l-58 0 -31 -87z m143 -178 c25 -77 46 -143 46 -147 0 -5
-46 -8 -101 -8 -92 0 -101 2 -96 18 29 103 93 290 98 284 3 -4 27 -70 53 -147z"/>
</g>
</svg>
